{
    "Name"  :   "go-1.21.5",
    "Zip"   :   "go1.21.5.windows-amd64.zip",
    "Url"   :   "https://golang.org/dl/go1.21.5.windows-amd64.zip",
    "Fetch" :	"web",
    "Plan"  :   "zipWithDirectory",
    "Type"  :   "application",
    "BinDir":	"/bin"
}
